…
```
## # A tibble: 365,069 x 12
##     ride_id started_at      ended_at rideable_type tripduration start_station_id
##       <dbl> <chr>           <chr>            <dbl>        <dbl>            <dbl>
##  1 21742443 2019-01-01 0:0~ 2019-01~          2167          390              199
##  2 21742444 2019-01-01 0:0~ 2019-01~          4386          441               44
##  3 21742445 2019-01-01 0:1~ 2019-01~          1524          829               15
##  4 21742446 2019-01-01 0:1~ 2019-01~           252         1783              123
##  5 21742447 2019-01-01 0:1~ 2019-01~          1170          364              173
##  6 21742448 2019-01-01 0:1~ 2019-01~          2437          216               98
##  7 21742449 2019-01-01 0:1~ 2019-01~          2708          177               98
##  8 21742450 2019-01-01 0:1~ 2019-01~          2796          100              211
##  9 21742451 2019-01-01 0:1~ 2019-01~          6205         1727              150
## 10 21742452 2019-01-01 0:1~ 2019-01~          3939          336              268
## # i 365,059 more rows
## # i 6 more variables: start_station_name <chr>, end_station_id <dbl>,
## #   end_station_name <chr>, member_casual <chr>, gender <chr>, birthyear <dbl>
```
…
